…
# load packages

# load pulse data

``` r
pulse_df = 
  haven::read_sas("./data/public_pulse_data.sas7bdat") |>
  janitor::clean_names()

pulse_df
```

    ## # A tibble: 1,087 × 7
    ##      id   age sex   bdi_score_bl bdi_score_01m bdi_score_06m bdi_score_12m
    ##   <dbl> <dbl> <chr>        <dbl>         <dbl>         <dbl>         <dbl>
    ## 1 10003  48.0 male             7             1             2             0
    ## 2 10015  72.5 male             6            NA            NA            NA
    ## 3 10022  58.5 male            14             3             8            NA
    ## 4 10026  72.7 male            20             6            18            16
    ## 5 10035  60.4 male             4             0             1             2
    ## # ℹ 1,082 more rows

This needs to go from wide to long format.

``` r
pulse_tidy_df = 
  pivot_longer(
    pulse_df, 
    bdi_score_bl:bdi_score_12m,
    names_to = "visit", 
    values_to = "bdi_score")

pulse_tidy_df
```

    ## # A tibble: 4,348 × 5
    ##      id   age sex   visit         bdi_score
    ##   <dbl> <dbl> <chr> <chr>             <dbl>
    ## 1 10003  48.0 male  bdi_score_bl          7
    ## 2 10003  48.0 male  bdi_score_01m         1
    ## 3 10003  48.0 male  bdi_score_06m         2
    ## 4 10003  48.0 male  bdi_score_12m         0
    ## 5 10015  72.5 male  bdi_score_bl          6
    ## # ℹ 4,343 more rows
Remove prefix variable names.

``` r
pulse_tidy_df = 
  pivot_longer(
    pulse_df, 
    bdi_score_bl:bdi_score_12m,
    names_to = "visit", 
    names_prefix = "bdi_score_",
    values_to = "bdi")

pulse_tidy_df
```

    ## # A tibble: 4,348 × 5
    ##      id   age sex   visit   bdi
    ##   <dbl> <dbl> <chr> <chr> <dbl>
    ## 1 10003  48.0 male  bl        7
    ## 2 10003  48.0 male  01m       1
    ## 3 10003  48.0 male  06m       2
    ## 4 10003  48.0 male  12m       0
    ## 5 10015  72.5 male  bl        6
    ## # ℹ 4,343 more rows
…
print(pulse_df, n = 12)
```

    ## # A tibble: 4,348 × 5
    ##       id visit   age sex     bdi
    ##    <dbl> <fct> <dbl> <chr> <dbl>
    ##  1 10003 00m    48.0 male      7
    ##  2 10003 01m    48.0 male      1
    ##  3 10003 06m    48.0 male      2
    ##  4 10003 12m    48.0 male      0
    ##  5 10015 00m    72.5 male      6
    ##  6 10015 01m    72.5 male     NA
    ##  7 10015 06m    72.5 male     NA
    ##  8 10015 12m    72.5 male     NA
    ##  9 10022 00m    58.5 male     14
    ## 10 10022 01m    58.5 male      3
    ## 11 10022 06m    58.5 male      8
    ## 12 10022 12m    58.5 male     NA
    ## # ℹ 4,336 more rows
…
